1920*1080 = 2073600
960*540 = 518400


1 1
2 2
3 4
4 8


1^2 is 1
2^2 is 4
3^2 is 9
4^2 is 16

2^0 is 1
2^1 is 2
2^2 is 4
2^3 is 8




1920 / 960 is 2
1920 / 480 is 4
1920 / 240 is 8

480 is mip level 2
240 is mip level 3

HOW TO CALC NEAREST MIPLEVEL?
240s portion (8) square root = 2.82
